What the Package Does (One Line, Title Case) • ggtranscript
…
Installation

devtools::install_github("dzhang32/ggtranscript")

Example

ggtranscript introduces 3 new geoms designed to make visualising transcript structures easier. geom_range() for exons (and genomic range based annotations), geom_intron() for introns and geom_junction() for overlaying junction data with transcript structures.

library(magrittr)
library(ggplot2)
library(ggtranscript)

# gene annotation for the an example gene (GBA)
gba_ens_105
#> # A tibble: 165 × 8
#>    seqnames     start       end strand type        gene_name transcript_name
#>    <fct>        <int>     <int> <fct>  <fct>       <chr>     <chr>          
#>  1 1        155234452 155244699 -      gene        GBA       <NA>           
#>  2 1        155234452 155241249 -      transcript  GBA       GBA-202        
#>  3 1        155241086 155241249 -      exon        GBA       GBA-202        
#>  4 1        155241086 155241112 -      CDS         GBA       GBA-202        
#>  5 1        155241110 155241112 -      start_codon GBA       GBA-202        
#>  6 1        155240630 155240717 -      exon        GBA       GBA-202        
#>  7 1        155240630 155240717 -      CDS         GBA       GBA-202        
#>  8 1        155239886 155240077 -      exon        GBA       GBA-202        
#>  9 1        155239886 155240077 -      CDS         GBA       GBA-202        
#> 10 1        155239616 155239762 -      exon        GBA       GBA-202        
#> # … with 155 more rows, and 1 more variable: transcript_biotype <chr>
…
