Add exon number — add_exon_number • ggtranscript
…
    Examples

library(magrittr)

gba_ens_105_exons <- gba_ens_105 %>%
    dplyr::filter(
        type == "exon",
        transcript_name %in% paste0("GBA-20", 2:8)
    )

gba_ens_105_exons
#> # A tibble: 45 × 8
#>    seqnames     start       end strand type  gene_name transcript_name
#>    <fct>        <int>     <int> <fct>  <fct> <chr>     <chr>          
#>  1 1        155241086 155241249 -      exon  GBA       GBA-202        
#>  2 1        155240630 155240717 -      exon  GBA       GBA-202        
#>  3 1        155239886 155240077 -      exon  GBA       GBA-202        
#>  4 1        155239616 155239762 -      exon  GBA       GBA-202        
#>  5 1        155238517 155238650 -      exon  GBA       GBA-202        
#>  6 1        155238134 155238306 -      exon  GBA       GBA-202        
#>  7 1        155237341 155237578 -      exon  GBA       GBA-202        
#>  8 1        155236245 155236469 -      exon  GBA       GBA-202        
#>  9 1        155235681 155235844 -      exon  GBA       GBA-202        
#> 10 1        155235195 155235311 -      exon  GBA       GBA-202        
#> # … with 35 more rows, and 1 more variable: transcript_biotype <chr>

gba_ens_105_exons %>%
    add_exon_number(group_var = "transcript_name")
#> # A tibble: 45 × 9
#>    seqnames     start       end strand type  gene_name transcript_name
#>    <fct>        <int>     <int> <fct>  <fct> <chr>     <chr>          
#>  1 1        155234452 155235100 -      exon  GBA       GBA-202        
#>  2 1        155235195 155235311 -      exon  GBA       GBA-202        
#>  3 1        155235681 155235844 -      exon  GBA       GBA-202        
#>  4 1        155236245 155236469 -      exon  GBA       GBA-202        
#>  5 1        155237341 155237578 -      exon  GBA       GBA-202        
#>  6 1        155238134 155238306 -      exon  GBA       GBA-202        
#>  7 1        155238517 155238650 -      exon  GBA       GBA-202        
#>  8 1        155239616 155239762 -      exon  GBA       GBA-202        
#>  9 1        155239886 155240077 -      exon  GBA       GBA-202        
#> 10 1        155240630 155240717 -      exon  GBA       GBA-202        
#> # … with 35 more rows, and 2 more variables: transcript_biotype <chr>,
#> #   exon_number <dbl>
…
