Plot junction curves — geom_junction • ggtranscript
…
    Examples

library(magrittr)

example_introns <-
  gba_ens_105 %>%
  dplyr::filter(type == "exon") %>%
  to_intron(group_var = transcript_name)

example_introns
#> # A tibble: 77 × 8
#>    seqnames strand type   gene_name transcript_name transcript_biotype     start
#>    <fct>    <fct>  <chr>  <chr>     <chr>           <chr>                  <dbl>
#>  1 1        -      intron GBA       GBA-202         protein_coding        1.55e8
#>  2 1        -      intron GBA       GBA-201         protein_coding        1.55e8
#>  3 1        -      intron GBA       GBA-203         protein_coding        1.55e8
#>  4 1        -      intron GBA       GBA-204         protein_coding        1.55e8
#>  5 1        -      intron GBA       GBA-211         processed_transcript  1.55e8
#>  6 1        -      intron GBA       GBA-210         processed_transcript  1.55e8
#>  7 1        -      intron GBA       GBA-206         processed_transcript  1.55e8
#>  8 1        -      intron GBA       GBA-202         protein_coding        1.55e8
#>  9 1        -      intron GBA       GBA-201         protein_coding        1.55e8
#> 10 1        -      intron GBA       GBA-203         protein_coding        1.55e8
#> # … with 67 more rows, and 1 more variable: end <dbl>
…
