Plot intron lines with strand arrows — geom_intron • ggtranscript
…
    Examples

library(magrittr)
library(ggplot2)

# to illustrate the package's functionality
# ggtranscript includes example transcript annotation
pknox1_annotation
#> # A tibble: 112 × 8
#>    seqnames    start      end strand type        gene_name transcript_name
#>    <fct>       <int>    <int> <fct>  <fct>       <chr>     <chr>          
#>  1 21       42974510 43033931 +      gene        PKNOX1    NA             
#>  2 21       42974510 43033931 +      transcript  PKNOX1    PKNOX1-203     
#>  3 21       42974510 42974664 +      exon        PKNOX1    PKNOX1-203     
#>  4 21       43004326 43004432 +      exon        PKNOX1    PKNOX1-203     
#>  5 21       43007491 43007618 +      exon        PKNOX1    PKNOX1-203     
#>  6 21       43013068 43013238 +      exon        PKNOX1    PKNOX1-203     
#>  7 21       43013068 43013238 +      CDS         PKNOX1    PKNOX1-203     
#>  8 21       43013068 43013070 +      start_codon PKNOX1    PKNOX1-203     
#>  9 21       43016908 43017007 +      exon        PKNOX1    PKNOX1-203     
#> 10 21       43016908 43017007 +      CDS         PKNOX1    PKNOX1-203     
#> # … with 102 more rows, and 1 more variable: transcript_biotype <chr>

# extract exons
pknox1_exons <- pknox1_annotation %>% dplyr::filter(type == "exon")
pknox1_exons
#> # A tibble: 59 × 8
#>    seqnames    start      end strand type  gene_name transcript_name
#>    <fct>       <int>    <int> <fct>  <fct> <chr>     <chr>          
#>  1 21       42974510 42974664 +      exon  PKNOX1    PKNOX1-203     
#>  2 21       43004326 43004432 +      exon  PKNOX1    PKNOX1-203     
#>  3 21       43007491 43007618 +      exon  PKNOX1    PKNOX1-203     
#>  4 21       43013068 43013238 +      exon  PKNOX1    PKNOX1-203     
#>  5 21       43016908 43017007 +      exon  PKNOX1    PKNOX1-203     
#>  6 21       43018133 43018230 +      exon  PKNOX1    PKNOX1-203     
#>  7 21       43021303 43021431 +      exon  PKNOX1    PKNOX1-203     
#>  8 21       43024871 43024947 +      exon  PKNOX1    PKNOX1-203     
#>  9 21       43028702 43028874 +      exon  PKNOX1    PKNOX1-203     
#> 10 21       43029890 43033931 +      exon  PKNOX1    PKNOX1-203     
#> # … with 49 more rows, and 1 more variable: transcript_biotype <chr>

# to_intron() is a helper function included in ggtranscript
# which is useful for converting exon co-ordinates to introns
pknox1_introns <- pknox1_exons %>% to_intron(group_var = "transcript_name")
pknox1_introns
#> # A tibble: 48 × 8
#>    seqnames strand type   gene_name transcript_name transcript_biotype     start
#>    <fct>    <fct>  <chr>  <chr>     <chr>           <chr>                  <int>
#>  1 21       +      intron PKNOX1    PKNOX1-203      protein_coding        4.30e7
#>  2 21       +      intron PKNOX1    PKNOX1-202      retained_intron       4.30e7
#>  3 21       +      intron PKNOX1    PKNOX1-201      protein_coding        4.30e7
#>  4 21       +      intron PKNOX1    PKNOX1-206      retained_intron       4.30e7
#>  5 21       +      intron PKNOX1    PKNOX1-204      retained_intron       4.30e7
#>  6 21       +      intron PKNOX1    PKNOX1-203      protein_coding        4.30e7
#>  7 21       +      intron PKNOX1    PKNOX1-201      protein_coding        4.30e7
#>  8 21       +      intron PKNOX1    PKNOX1-206      retained_intron       4.30e7
#>  9 21       +      intron PKNOX1    PKNOX1-209      nonsense_mediated_de… 4.30e7
#> 10 21       +      intron PKNOX1    PKNOX1-202      retained_intron       4.30e7
#> # … with 38 more rows, and 1 more variable: end <int>
…
