Label junction curves — geom_junction_label_repel • ggtranscript
…
# add some arbitrary counts
example_introns <- example_introns %>%
    dplyr::mutate(
        count = dplyr::row_number()
    )

example_introns
#> # A tibble: 21 × 9
#>    seqnames strand type   gene_name transcript_name transcript_biotype     start
#>    <fct>    <fct>  <chr>  <chr>     <chr>           <chr>                  <int>
#>  1 1        -      intron GBA       GBA-202         protein_coding     155235100
#>  2 1        -      intron GBA       GBA-201         protein_coding     155235100
#>  3 1        -      intron GBA       GBA-202         protein_coding     155235311
#>  4 1        -      intron GBA       GBA-201         protein_coding     155235311
#>  5 1        -      intron GBA       GBA-202         protein_coding     155235844
#>  6 1        -      intron GBA       GBA-201         protein_coding     155235844
#>  7 1        -      intron GBA       GBA-202         protein_coding     155236469
#>  8 1        -      intron GBA       GBA-201         protein_coding     155236469
#>  9 1        -      intron GBA       GBA-202         protein_coding     155237578
#> 10 1        -      intron GBA       GBA-201         protein_coding     155237578
#> # … with 11 more rows, and 2 more variables: end <int>, count <int>
…
